^C:\USERS\MAGSHIMIM\DOCUMENTS\MAGSHIMIM\11TH_GRADE\SEMESTER_B\ADVANCED_PRIN\FINALPROJECT_IDOGILDNUR\FINALPROJ_SERVER\FINALPROJ_SERVER\DEBUG\DATABASE.OBJ|C:\USERS\MAGSHIMIM\DOCUMENTS\MAGSHIMIM\11TH_GRADE\SEMESTER_B\ADVANCED_PRIN\FINALPROJECT_IDOGILDNUR\FINALPROJ_SERVER\FINALPROJ_SERVER\DEBUG\HELPER.OBJ|C:\USERS\MAGSHIMIM\DOCUMENTS\MAGSHIMIM\11TH_GRADE\SEMESTER_B\ADVANCED_PRIN\FINALPROJECT_IDOGILDNUR\FINALPROJ_SERVER\FINALPROJ_SERVER\DEBUG\RECIEVEDMESSAGE.OBJ|C:\USERS\MAGSHIMIM\DOCUMENTS\MAGSHIMIM\11TH_GRADE\SEMESTER_B\ADVANCED_PRIN\FINALPROJECT_IDOGILDNUR\FINALPROJ_SERVER\FINALPROJ_SERVER\DEBUG\ROOM.OBJ|C:\USERS\MAGSHIMIM\DOCUMENTS\MAGSHIMIM\11TH_GRADE\SEMESTER_B\ADVANCED_PRIN\FINALPROJECT_IDOGILDNUR\FINALPROJ_SERVER\FINALPROJ_SERVER\DEBUG\SOURCE.OBJ|C:\USERS\MAGSHIMIM\DOCUMENTS\MAGSHIMIM\11TH_GRADE\SEMESTER_B\ADVANCED_PRIN\FINALPROJECT_IDOGILDNUR\FINALPROJ_SERVER\FINALPROJ_SERVER\DEBUG\TRIVIASERVER.OBJ|C:\USERS\MAGSHIMIM\DOCUMENTS\MAGSHIMIM\11TH_GRADE\SEMESTER_B\ADVANCED_PRIN\FINALPROJECT_IDOGILDNUR\FINALPROJ_SERVER\FINALPROJ_SERVER\DEBUG\USER.OBJ|C:\USERS\MAGSHIMIM\DOCUMENTS\MAGSHIMIM\11TH_GRADE\SEMESTER_B\ADVANCED_PRIN\FINALPROJECT_IDOGILDNUR\FINALPROJ_SERVER\FINALPROJ_SERVER\DEBUG\VALIDATOR.OBJ
C:\USERS\MAGSHIMIM\DOCUMENTS\MAGSHIMIM\11TH_GRADE\SEMESTER_B\ADVANCED_PRIN\FINALPROJECT_IDOGILDNUR\FINALPROJ_SERVER\DEBUG\FINALPROJ_SERVER.EXE
C:\USERS\MAGSHIMIM\DOCUMENTS\MAGSHIMIM\11TH_GRADE\SEMESTER_B\ADVANCED_PRIN\FINALPROJECT_IDOGILDNUR\FINALPROJ_SERVER\DEBUG\FINALPROJ_SERVER.ILK
C:\USERS\MAGSHIMIM\DOCUMENTS\MAGSHIMIM\11TH_GRADE\SEMESTER_B\ADVANCED_PRIN\FINALPROJECT_IDOGILDNUR\FINALPROJ_SERVER\DEBUG\FINALPROJ_SERVER.PDB
